<?xml version="1.0" standalone="no"?>
<!DOCTYPE svg PUBLIC "-//W3C//DTD SVG 20010904//EN"
 "http://www.w3.org/TR/2001/REC-SVG-20010904/DTD/svg10.dtd">
<svg version="1.0" xmlns="http://www.w3.org/2000/svg"
 width="1000.000000pt" height="1000.000000pt" viewBox="0 0 1000.000000 1000.000000"
 preserveAspectRatio="xMidYMid meet">
<metadata>
Created by potrace 1.11, written by Peter Selinger 2001-2013
</metadata>
<g transform="translate(0.000000,1000.000000) scale(0.100000,-0.100000)"
fill="#000000" stroke="none">
<path d="M4065 8559 c17 -12 78 -70 136 -128 107 -107 185 -213 255 -348 19
-37 32 -59 28 -48 -7 22 -11 47 -13 84 -1 17 -5 22 -17 17 -15 -6 -15 -4 -3
10 12 15 15 14 34 -9 11 -13 26 -33 33 -43 7 -10 6 -5 -2 12 -25 52 -136 196
-205 265 -63 63 -211 179 -255 200 -12 6 -7 0 9 -12z"/>
<path d="M4540 8050 c6 -11 13 -20 16 -20 2 0 0 9 -6 20 -6 11 -13 20 -16 20
-2 0 0 -9 6 -20z"/>
<path d="M4115 7983 c-68 -14 -64 -10 -54 -49 6 -19 8 -41 5 -47 -2 -7 -5 -3
-5 8 -1 18 -6 20 -41 17 -24 -3 -37 -8 -33 -15 3 -5 5 -79 4 -163 -2 -140 -1
-153 16 -156 10 -3 -55 -8 -144 -12 l-163 -8 6 -24 6 -24 -108 -1 c-101 0
-232 -15 -161 -18 l28 -1 -3 -185 -3 -185 32 -6 c17 -3 34 -12 37 -19 3 -8 5
-84 5 -170 0 -122 -3 -157 -14 -161 -11 -4 -13 -41 -12 -184 l2 -178 -29 -6
c-16 -3 -32 -6 -37 -6 -9 0 -16 25 -50 178 l-22 102 -106 -2 c-58 -1 -85 -3
-58 -5 l47 -4 0 -130 0 -129 -47 -1 -48 -1 60 -10 c79 -12 294 -3 373 16 356
88 612 346 728 736 27 89 29 106 28 270 -1 214 -15 277 -105 458 -65 130 -64
130 -134 115z m-98 -255 c-3 -7 -5 -2 -5 12 0 14 2 19 5 13 2 -7 2 -19 0 -25z
m21 -534 c38 -4 59 -11 55 -17 -4 -6 0 -8 10 -4 10 3 17 2 17 -2 0 -5 -4 -11
-9 -13 -6 -2 -11 -85 -13 -190 -2 -102 0 -181 4 -175 5 9 12 7 24 -4 15 -16 6
-17 -127 -24 -195 -10 -201 -8 -210 35 -10 46 -69 385 -69 394 0 8 239 8 318
0z m89 -256 c-2 -35 -3 -7 -3 62 0 69 1 97 3 63 2 -35 2 -91 0 -125z"/>
<path d="M6388 7453 c7 -3 16 -2 19 1 4 3 -2 6 -13 5 -11 0 -14 -3 -6 -6z"/>
<path d="M6791 7396 c2 -2 15 -9 29 -15 24 -11 24 -11 6 3 -16 13 -49 24 -35
12z"/>
<path d="M5100 7380 c-9 -6 -10 -10 -3 -10 6 0 15 5 18 10 8 12 4 12 -15 0z"/>
<path d="M4966 7305 c-97 -61 -141 -93 -232 -172 -54 -46 -64 -61 -83 -120
-30 -91 -124 -280 -162 -323 -17 -19 -28 -29 -24 -22 11 20 13 62 4 56 -11 -6
-12 40 -2 50 9 9 11 66 2 66 -4 0 -5 12 -2 28 2 15 6 36 7 47 2 11 8 31 15 43
7 13 11 26 8 28 -2 3 -14 -19 -27 -48 -60 -142 -202 -335 -325 -442 -276 -240
-619 -362 -971 -343 -148 8 -245 29 -429 91 -54 19 110 -61 177 -85 142 -52
265 -72 443 -73 173 0 270 14 419 61 123 38 286 123 379 195 43 34 44 31 17
-46 -35 -104 -71 -287 -83 -427 -13 -163 -1 -351 33 -519 72 -351 265 -709
511 -945 l62 -60 -55 70 c-175 221 -308 503 -366 775 -174 813 205 1643 935
2047 67 37 120 69 118 71 -2 3 -19 -5 -38 -17 -19 -11 -43 -22 -55 -24 -12 -2
-25 -6 -28 -10 -12 -12 -26 -8 -18 6 5 9 4 9 -5 1 -7 -7 -46 -9 -106 -6 -106
5 -178 -4 -154 -19 9 -5 10 -9 2 -9 -23 0 -23 19 -1 40 13 12 47 35 76 51 45
27 61 39 49 39 -2 0 -43 -25 -91 -55z"/>
<path d="M6790 7350 c8 -5 20 -10 25 -10 6 0 3 5 -5 10 -8 5 -19 10 -25 10 -5
0 -3 -5 5 -10z"/>
<path d="M6890 7346 c0 -3 20 -17 45 -32 51 -30 54 -45 4 -20 -18 9 -34 14
-37 12 -9 -9 60 -37 78 -31 10 3 21 1 25 -5 3 -5 0 -10 -7 -10 -7 0 25 -23 70
-50 46 -28 99 -62 118 -76 62 -48 35 -17 -36 40 -40 33 -75 54 -82 50 -6 -4
-8 -3 -4 4 4 6 -12 23 -36 40 -60 41 -138 85 -138 78z"/>
<path d="M5896 7102 c-6 -11 57 -279 69 -290 2 -3 59 -1 125 4 66 5 120 6 120
2 0 -5 -4 -9 -10 -9 -5 -1 -14 -2 -19 -3 -5 0 -12 -4 -15 -7 -3 -3 -6 -120 -6
-261 -1 -232 -3 -257 -18 -261 -9 -3 0 -5 20 -6 39 -1 341 28 346 34 2 1 -33
120 -77 263 -45 143 -81 265 -81 271 0 6 16 11 36 11 l36 0 -4 48 -3 47 55 8
c126 19 126 19 -8 65 -67 24 -166 52 -220 62 -121 25 -336 38 -346 22z"/>
<path d="M5189 6884 c-40 -25 -94 -62 -119 -82 -65 -52 -200 -184 -200 -195 0
-5 8 -3 17 4 11 10 14 10 9 2 -4 -8 -2 -13 6 -13 10 0 10 -2 0 -8 -9 -6 -11
-62 -8 -243 2 -129 7 -250 10 -269 3 -19 -27 63 -68 184 l-74 218 -32 -46
c-49 -72 -136 -262 -163 -356 -54 -187 -72 -410 -47 -583 16 -104 22 -117 65
-117 24 0 34 -4 29 -11 -4 -6 -7 -39 -6 -72 0 -39 -3 -55 -9 -46 -31 50 46
-171 91 -261 51 -100 81 -140 202 -266 87 -91 286 -259 295 -250 1 1 -29 92
-68 200 -38 109 -68 201 -65 203 2 3 23 7 46 10 34 5 41 9 37 24 -6 24 -6 24
228 44 105 8 208 18 231 21 l41 5 -87 282 -87 282 47 10 47 10 -74 235 c-40
129 -74 246 -76 259 -2 23 3 26 53 35 l56 11 -103 335 c-56 184 -113 370 -126
412 l-23 78 -75 -46z m164 -833 c-21 -18 -22 -24 -22 -260 0 -239 0 -241 21
-241 29 0 17 -10 -18 -15 -16 -2 -80 -11 -142 -20 -62 -10 -115 -16 -117 -14
-5 6 -165 505 -165 516 0 5 96 17 213 27 116 10 219 19 227 21 8 1 17 3 20 4
3 0 -5 -8 -17 -18z m14 -33 c-3 -8 -6 -5 -6 6 -1 11 2 17 5 13 3 -3 4 -12 1
-19z m0 -70 c-3 -7 -5 -2 -5 12 0 14 2 19 5 13 2 -7 2 -19 0 -25z"/>
<path d="M1034 4011 c-139 -36 -223 -138 -247 -302 -28 -193 54 -364 203 -420
44 -17 71 -20 140 -17 133 6 210 57 261 173 11 25 18 49 15 54 -8 13 -130 44
-133 35 -2 -5 -14 -29 -27 -54 -61 -120 -223 -117 -286 5 -22 44 -25 62 -25
155 0 92 3 111 25 155 34 68 77 95 150 95 68 0 113 -26 142 -81 l19 -37 62 16
c34 8 65 18 69 21 4 3 -1 24 -11 47 -45 100 -132 155 -256 160 -38 2 -84 0
-101 -5z"/>
<path d="M1757 4010 c-95 -24 -169 -88 -216 -189 -24 -51 -26 -67 -26 -176 0
-102 4 -129 23 -177 28 -69 89 -135 157 -168 44 -22 63 -25 160 -25 95 0 117
3 163 24 139 63 215 240 183 427 -32 180 -146 282 -325 290 -45 2 -98 -1 -119
-6z m186 -134 c95 -39 143 -196 102 -334 -30 -101 -116 -161 -211 -148 -63 8
-109 39 -141 94 -35 60 -44 192 -19 269 16 47 58 97 101 121 28 16 129 15 168
-2z"/>
<path d="M4683 4011 c-55 -14 -137 -67 -170 -109 -56 -73 -76 -143 -76 -262 0
-140 23 -203 102 -281 67 -66 124 -89 222 -89 81 0 155 23 203 62 39 32 105
154 90 167 -11 10 -102 41 -120 41 -7 0 -18 -16 -24 -36 -37 -110 -169 -148
-255 -73 -50 45 -70 106 -70 219 0 81 4 103 25 145 34 68 77 95 150 95 69 0
116 -27 143 -81 l18 -37 62 16 c34 8 66 18 70 22 5 4 -1 27 -13 51 -50 100
-130 149 -249 155 -42 2 -90 0 -108 -5z"/>
<path d="M2328 3645 l-3 -365 67 0 68 0 2 235 3 234 144 -234 144 -235 74 0
73 0 -2 363 -3 362 -65 0 -65 0 -5 -237 -5 -237 -145 237 -145 237 -67 3 -68
3 -2 -366z"/>
<path d="M3058 3645 l-3 -365 67 0 68 0 2 235 3 235 144 -235 144 -235 74 0
73 0 -2 363 -3 362 -65 0 -65 0 -5 -237 -5 -238 -104 173 c-58 94 -124 202
-148 240 l-43 67 -65 0 -65 0 -2 -365z"/>
<path d="M3790 3645 l0 -365 270 0 270 0 0 60 0 60 -200 0 -200 0 0 100 0 100
180 0 180 0 0 60 0 60 -180 0 -180 0 0 80 0 80 193 2 192 3 3 63 3 62 -266 0
-265 0 0 -365z"/>
<path d="M5140 3945 l0 -65 105 0 105 0 0 -300 0 -300 75 0 75 0 0 300 0 300
105 0 105 0 0 65 0 65 -285 0 -285 0 0 -65z"/>
<path d="M2790 3055 c0 -2 18 -33 40 -67 33 -53 40 -72 40 -115 0 -40 4 -53
15 -53 11 0 15 12 15 51 0 43 6 59 45 115 50 71 51 74 31 74 -8 0 -30 -25 -48
-55 -18 -30 -35 -55 -38 -55 -3 0 -20 25 -38 55 -18 30 -40 55 -48 55 -8 0
-14 -2 -14 -5z"/>
<path d="M3067 3049 c-47 -27 -62 -129 -27 -186 20 -34 72 -55 112 -46 36 9
77 53 84 91 9 46 -11 106 -43 131 -28 23 -95 28 -126 10z m114 -38 c33 -34 39
-83 14 -130 -24 -48 -81 -56 -120 -16 -20 19 -25 34 -25 75 0 92 71 130 131
71z"/>
<path d="M3282 2961 c3 -108 15 -134 65 -144 36 -7 91 11 103 33 12 23 14 210
1 210 -4 0 -11 -44 -14 -97 -6 -106 -16 -123 -67 -123 -48 0 -60 26 -60 128 0
78 -3 92 -16 92 -14 0 -15 -14 -12 -99z"/>
<path d="M3520 2940 c0 -103 2 -120 16 -120 12 0 15 10 14 43 -3 64 -2 67 21
67 33 0 55 -17 85 -65 17 -26 37 -45 47 -45 17 0 17 1 0 31 -10 17 -27 40 -37
51 -19 21 -19 21 7 40 20 15 27 28 27 53 0 49 -28 65 -112 65 l-68 0 0 -120z
m131 90 c25 -14 25 -56 -1 -70 -12 -6 -39 -10 -62 -8 -41 3 -41 4 -41 41 1 20
2 39 2 42 2 9 82 5 102 -5z"/>
<path d="M3840 2940 l0 -120 60 0 c103 0 135 31 134 128 0 49 -4 58 -32 83
-29 26 -40 29 -97 29 l-65 0 0 -120z m149 64 c23 -29 27 -80 10 -118 -14 -29
-56 -49 -95 -44 l-29 3 -3 93 -3 92 50 0 c42 0 53 -4 70 -26z"/>
<path d="M4090 2939 c0 -92 3 -120 13 -117 8 3 13 39 15 121 2 100 0 117 -13
117 -13 0 -15 -19 -15 -121z"/>
<path d="M4201 3032 c-52 -52 -47 -152 11 -195 33 -25 108 -26 143 -3 21 14
25 25 25 62 l0 45 -47 -3 c-54 -3 -65 -21 -15 -26 27 -3 32 -7 32 -28 0 -44
-78 -59 -123 -24 -32 25 -42 78 -23 124 25 60 89 75 130 31 27 -29 36 -31 36
-10 0 32 -38 55 -91 55 -42 0 -55 -5 -78 -28z"/>
<path d="M4430 2940 c0 -100 3 -120 15 -120 13 0 15 20 15 120 0 100 -2 120
-15 120 -12 0 -15 -20 -15 -120z"/>
<path d="M4502 3048 c3 -7 21 -14 41 -16 l37 -3 0 -105 c0 -86 3 -104 15 -104
12 0 15 18 15 104 l0 105 35 3 c20 2 36 8 38 13 1 6 -36 11 -91 13 -73 2 -93
0 -90 -10z"/>
<path d="M4741 2948 c-46 -126 -46 -128 -27 -128 7 0 17 15 22 33 9 30 13 32
61 35 51 3 53 2 67 -32 8 -20 22 -36 30 -36 13 0 13 8 -5 53 -12 28 -33 82
-48 120 -37 96 -49 91 -100 -45z m81 22 l16 -50 -40 0 c-28 0 -39 4 -35 13 2
6 10 29 18 50 7 20 16 37 19 37 3 0 13 -22 22 -50z"/>
<path d="M4940 2940 l0 -120 70 0 c84 0 94 18 13 22 l-58 3 -3 108 c-4 148
-22 138 -22 -13z"/>
<path d="M5238 3031 c-30 -27 -33 -34 -32 -88 0 -39 6 -67 18 -85 20 -30 69
-48 110 -41 34 7 81 62 66 77 -8 8 -18 2 -36 -22 -61 -77 -156 -2 -130 103 16
64 87 87 124 40 22 -28 42 -33 42 -11 0 25 -50 56 -91 56 -29 0 -47 -8 -71
-29z"/>
<path d="M5484 3042 c-31 -25 -44 -55 -44 -104 0 -81 59 -135 134 -121 88 17
117 157 45 217 -37 31 -102 35 -135 8z m107 -15 c26 -20 39 -53 39 -97 0 -51
-34 -90 -80 -90 -50 0 -80 38 -80 100 0 41 5 56 25 75 26 27 70 32 96 12z"/>
<path d="M5700 2940 c0 -99 3 -120 15 -120 11 0 15 19 17 93 l3 92 60 -93 c33
-52 65 -91 73 -90 7 2 13 6 13 11 -1 4 -1 57 -1 117 0 67 -4 110 -10 110 -6 0
-10 -37 -10 -90 0 -49 -3 -90 -7 -89 -5 0 -34 40 -65 90 -79 123 -88 120 -88
-31z"/>
<path d="M5957 3042 c-22 -24 -22 -65 1 -85 9 -8 39 -21 65 -28 58 -14 77 -41
51 -70 -26 -29 -71 -24 -105 12 -25 26 -30 29 -35 14 -11 -28 36 -66 83 -68
58 -2 93 24 93 68 0 39 -20 57 -86 74 -57 15 -72 35 -49 61 25 27 61 25 91 -5
30 -30 34 -31 34 -6 0 47 -109 71 -143 33z"/>
<path d="M6160 2970 c0 -106 11 -137 55 -149 45 -12 82 -3 105 27 17 21 20 40
20 118 0 77 -3 94 -15 94 -12 0 -15 -17 -15 -93 0 -104 -12 -127 -63 -127 -47
0 -57 22 -57 126 0 77 -3 94 -15 94 -12 0 -15 -17 -15 -90z"/>
<path d="M6390 2940 l0 -120 75 0 c88 0 102 18 18 22 l-58 3 -3 108 c-2 86 -6
107 -17 107 -12 0 -15 -21 -15 -120z"/>
<path d="M6560 3045 c0 -11 11 -15 40 -15 l40 0 0 -106 c0 -74 3 -105 11 -102
8 3 11 37 10 106 l-2 102 40 0 c30 0 41 4 41 15 0 12 -17 15 -90 15 -73 0 -90
-3 -90 -15z"/>
<path d="M6780 2940 c0 -100 3 -120 15 -120 13 0 15 20 15 120 0 100 -2 120
-15 120 -12 0 -15 -20 -15 -120z"/>
<path d="M6870 2940 c0 -73 4 -120 10 -120 6 0 10 37 10 90 0 50 3 90 8 90 4
0 33 -41 64 -90 79 -124 88 -121 88 30 0 102 -2 120 -16 120 -13 0 -15 -14
-13 -85 1 -47 0 -88 -3 -91 -3 -3 -31 36 -63 86 -31 49 -63 90 -71 90 -11 0
-14 -23 -14 -120z"/>
<path d="M7147 3049 c-63 -37 -61 -185 4 -220 31 -16 106 -13 134 5 21 14 25
25 25 62 l0 45 -47 -3 c-54 -3 -61 -20 -12 -28 40 -6 46 -23 20 -49 -30 -30
-85 -28 -116 4 -20 19 -25 34 -25 75 0 41 5 56 25 75 32 33 78 33 111 0 14
-14 29 -25 34 -25 15 0 -2 40 -23 55 -24 17 -103 19 -130 4z"/>
<path d="M7450 2940 c0 -100 3 -120 15 -120 11 0 15 12 15 50 l0 50 54 0 c47
0 57 4 75 26 27 35 26 59 -4 89 -21 22 -33 25 -90 25 l-65 0 0 -120z m140 75
c28 -34 -13 -75 -77 -75 -32 0 -33 1 -33 45 l0 45 49 0 c30 0 53 -5 61 -15z"/>
<path d="M7691 2948 c-46 -126 -46 -128 -27 -128 7 0 17 15 22 33 9 30 12 32
62 35 52 3 53 3 67 -32 9 -20 22 -36 30 -36 12 0 11 9 -6 53 -12 28 -33 82
-48 120 -37 96 -49 91 -100 -45z m81 25 c9 -26 16 -48 15 -49 -8 -8 -72 -7
-72 1 1 19 28 95 34 95 3 0 14 -21 23 -47z"/>
<path d="M7890 2940 c0 -100 3 -120 15 -120 12 0 15 13 15 55 0 49 2 55 21 55
33 0 55 -17 85 -65 17 -26 37 -45 47 -45 20 0 19 2 -24 66 l-29 42 25 16 c19
12 25 25 25 51 0 49 -28 65 -112 65 l-68 0 0 -120z m131 90 c11 -6 19 -21 19
-35 0 -30 -26 -45 -79 -45 l-41 0 0 45 0 45 41 0 c22 0 49 -5 60 -10z"/>
<path d="M8110 3045 c0 -10 11 -15 35 -15 l35 0 0 -105 c0 -87 3 -105 15 -105
12 0 15 18 15 105 l0 105 40 0 c29 0 40 4 40 15 0 12 -17 15 -90 15 -73 0 -90
-3 -90 -15z"/>
<path d="M8320 2940 c0 -99 3 -120 15 -120 11 0 15 19 17 93 l3 92 60 -92 c84
-131 95 -128 95 27 0 99 -3 120 -15 120 -11 0 -15 -19 -17 -92 l-3 -93 -60 92
c-84 130 -95 127 -95 -27z"/>
<path d="M8560 2940 l0 -120 84 0 c47 0 88 5 91 10 4 6 -22 10 -69 10 l-76 0
0 45 0 45 65 0 c51 0 65 3 65 15 0 12 -14 15 -65 15 l-65 0 0 35 0 35 70 0
c56 0 70 3 70 15 0 12 -16 15 -85 15 l-85 0 0 -120z"/>
<path d="M8780 2940 c0 -100 3 -120 15 -120 12 0 15 13 15 56 l0 55 32 -3 c24
-2 40 -14 64 -45 18 -23 34 -47 36 -54 2 -6 12 -10 22 -8 16 4 14 10 -17 56
l-34 51 25 19 c32 24 33 70 2 95 -17 13 -40 18 -91 18 l-69 0 0 -120z m138 84
c12 -8 22 -21 22 -29 0 -23 -42 -45 -87 -45 l-43 0 0 38 c0 21 3 42 7 45 12
13 79 7 101 -9z"/>
<path d="M9037 3042 c-22 -24 -22 -65 1 -85 9 -8 35 -20 57 -26 56 -15 67 -25
63 -52 -7 -50 -96 -51 -122 -1 -12 22 -16 24 -21 10 -11 -27 13 -57 55 -68 78
-21 140 32 112 95 -8 17 -27 29 -63 39 -77 23 -93 41 -63 70 23 23 62 19 88
-9 27 -29 36 -31 36 -10 0 49 -107 77 -143 37z"/>
</g>
</svg>
